Project 1
…
## 
## Attaching package: 'dplyr'

## The following objects are masked from 'package:stats':
## 
##     filter, lag

## The following objects are masked from 'package:base':
## 
##     intersect, setdiff, setequal, union

## # A tibble: 20,293 × 78
##       ID SurveyYr Gender   Age AgeMonths Race1    Race3 Education  MaritalStatus
##    <int> <fct>    <fct>  <int>     <int> <fct>    <fct> <fct>      <fct>        
##  1 51624 2009_10  male      34       409 White    <NA>  High Scho… Married      
##  2 51625 2009_10  male       4        49 Other    <NA>  <NA>       <NA>         
##  3 51626 2009_10  male      16       202 Black    <NA>  <NA>       <NA>         
##  4 51627 2009_10  male      10       131 Black    <NA>  <NA>       <NA>         
##  5 51628 2009_10  female    60       722 Black    <NA>  High Scho… Widowed      
##  6 51629 2009_10  male      26       313 Mexican  <NA>  9 - 11th … Married      
##  7 51630 2009_10  female    49       596 White    <NA>  Some Coll… LivePartner  
##  8 51631 2009_10  female     1        12 White    <NA>  <NA>       <NA>         
##  9 51632 2009_10  male      10       124 Hispanic <NA>  <NA>       <NA>         
## 10 51633 2009_10  male      80        NA White    <NA>  Some Coll… Married      
## # ℹ 20,283 more rows
## # ℹ 69 more variables: HHIncome <fct>, HHIncomeMid <int>, Poverty <dbl>,
## #   HomeRooms <int>, HomeOwn <fct>, Work <fct>, Weight <dbl>, Length <dbl>,
## #   HeadCirc <dbl>, Height <dbl>, BMI <dbl>, BMICatUnder20yrs <fct>,
## #   BMI_WHO <fct>, Pulse <int>, BPSysAve <int>, BPDiaAve <int>, BPSys1 <int>,
## #   BPDia1 <int>, BPSys2 <int>, BPDia2 <int>, BPSys3 <int>, BPDia3 <int>,
## #   Testosterone <dbl>, DirectChol <dbl>, TotChol <dbl>, UrineVol1 <int>, …
…
